<?xml version="1.0" encoding="UTF-8" standalone="no"?>
<svg
   xmlns:dc="http://purl.org/dc/elements/1.1/"
   xmlns:cc="http://creativecommons.org/ns#"
   xmlns:rdf="http://www.w3.org/1999/02/22-rdf-syntax-ns#"
   xmlns:svg="http://www.w3.org/2000/svg"
   xmlns="http://www.w3.org/2000/svg"
   xmlns:sodipodi="http://sodipodi.sourceforge.net/DTD/sodipodi-0.dtd"
   xmlns:inkscape="http://www.inkscape.org/namespaces/inkscape"
   inkscape:version="1.0 (4035a4fb49, 2020-05-01)"
   sodipodi:docname="coding-icon.svg"
   width="423.33334mm"
   height="238.125mm"
   viewBox="0 0 423.33335 238.12501"
   version="1.1"
   id="svg8">
  <sodipodi:namedview
     inkscape:current-layer="svg8"
     inkscape:window-maximized="0"
     inkscape:window-y="11"
     inkscape:window-x="799"
     inkscape:cy="55.446322"
     inkscape:cx="429.52302"
     inkscape:zoom="0.15456413"
     showgrid="false"
     id="namedview32"
     inkscape:window-height="763"
     inkscape:window-width="1170"
     inkscape:pageshadow="2"
     inkscape:pageopacity="0"
     guidetolerance="10"
     gridtolerance="10"
     objecttolerance="10"
     borderopacity="1"
     bordercolor="#666666"
     pagecolor="#ffffff" />
  <defs
     id="defs2" />
  <metadata
     id="metadata5">
    <rdf:RDF>
      <cc:Work
         rdf:about="">
        <dc:format>image/svg+xml</dc:format>
        <dc:type
           rdf:resource="http://purl.org/dc/dcmitype/StillImage" />
        <dc:title></dc:title>
      </cc:Work>
    </rdf:RDF>
  </metadata>
  <g
     id="layer1"
     transform="matrix(1.2750435,0,0,1.2750435,76.316514,-87.390809)">
    <g
       transform="translate(245.19707,-29.192174)"
       id="g1467">
      <g
         id="g1440">
        <path
           id="rect10"
           style="fill:#070707;fill-opacity:1;stroke:#000000;stroke-width:7.55906;stroke-linejoin:round;stroke-miterlimit:4;stroke-dasharray:none;stroke-opacity:1"
           d="m -784.29492,438.70703 c -24.62347,0 -44.44531,19.8238 -44.44531,44.44727 v 325.08593 c 0,24.62351 19.82184,44.44727 44.44531,44.44727 h 531.74414 c 24.62347,0 44.44726,-19.82376 44.44726,-44.44727 V 483.1543 c 0,-24.62347 -19.82379,-44.44727 -44.44726,-44.44727 z m 8,10 h 515.74414 c 24.62347,0 44.44726,19.8238 44.44726,44.44727 v 281.08593 c 0,24.62351 -19.82379,44.44727 -44.44726,44.44727 h -515.74414 c -24.62347,0 -44.44531,-19.82376 -44.44531,-44.44727 V 493.1543 c 0,-24.62347 19.82184,-44.44727 44.44531,-44.44727 z"
           transform="scale(0.26458333)" />
        <path
           id="rect835"
           style="fill:#000000;fill-opacity:1;stroke:#000000;stroke-width:4.99999;stroke-linejoin:round;stroke-miterlimit:4;stroke-dasharray:none;stroke-opacity:1"
           d="m -157.41612,226.32766 42.58024,-0.0227 2.74061,39.262 -48.42958,-0.32072 z" />
      </g>
      <g
         transform="translate(-8.7664372,-7.6973754)"
         id="g1345">
        <rect
           style="fill:none;fill-opacity:1;stroke:#000000;stroke-width:2;stroke-linecap:round;stroke-linejoin:round;stroke-miterlimit:4;stroke-dasharray:none;stroke-opacity:1"
           id="rect1274"
           width="120.16437"
           height="73.980209"
           x="-195.69472"
           y="139.0336"
           ry="2.7795897" />
        <rect
           style="fill:none;fill-opacity:1;stroke:#000000;stroke-width:2;stroke-linecap:round;stroke-linejoin:round;stroke-miterlimit:4;stroke-dasharray:none;stroke-opacity:1"
           id="rect1276"
           width="119.92381"
           height="5.9868474"
           x="-195.69472"
           y="139.0336"
           ry="2.7795801" />
        <path
           style="fill:none;stroke:#000000;stroke-width:2;stroke-linecap:round;stroke-linejoin:miter;stroke-miterlimit:4;stroke-dasharray:none;stroke-opacity:1"
           d="m -189.20009,153.46616 h 55.69896"
           id="path1284" />
        <path
           id="path1286"
           d="m -189.20009,156.64118 h 35.59063"
           style="fill:none;stroke:#000000;stroke-width:2;stroke-linecap:round;stroke-linejoin:miter;stroke-miterlimit:4;stroke-dasharray:none;stroke-opacity:1" />
        <path
           id="path1290"
           d="m -189.20009,153.46616 h 55.69896"
           style="fill:none;stroke:#000000;stroke-width:2;stroke-linecap:round;stroke-linejoin:miter;stroke-miterlimit:4;stroke-dasharray:none;stroke-opacity:1" />
        <path
           style="fill:none;stroke:#000000;stroke-width:2;stroke-linecap:round;stroke-linejoin:miter;stroke-miterlimit:4;stroke-dasharray:none;stroke-opacity:1"
           d="m -189.20009,153.46616 h 55.69896"
           id="path1292" />
        <path
           id="path1294"
           d="m -189.20009,159.8162 h 45.36651"
           style="fill:none;stroke:#000000;stroke-width:2;stroke-linecap:round;stroke-linejoin:miter;stroke-miterlimit:4;stroke-dasharray:none;stroke-opacity:1" />
        <path
           style="fill:none;stroke:#000000;stroke-width:2;stroke-linecap:round;stroke-linejoin:miter;stroke-miterlimit:4;stroke-dasharray:none;stroke-opacity:1"
           d="m -139.98758,159.8162 h 13.08736"
           id="path1296" />
        <path
           style="fill:none;stroke:#000000;stroke-width:2;stroke-linecap:round;stroke-linejoin:miter;stroke-miterlimit:4;stroke-dasharray:none;stroke-opacity:1"
           d="m -189.20009,162.99122 h 35.59063"
           id="path1298" />
        <path
           id="path1300"
           d="m -189.20009,166.16624 h 41.94063"
           style="fill:none;stroke:#000000;stroke-width:2;stroke-linecap:round;stroke-linejoin:miter;stroke-miterlimit:4;stroke-dasharray:none;stroke-opacity:1" />
        <path
           style="fill:none;stroke:#000000;stroke-width:2;stroke-linecap:round;stroke-linejoin:miter;stroke-miterlimit:4;stroke-dasharray:none;stroke-opacity:1"
           d="m -189.20009,169.34126 h 22.61234"
           id="path1302" />
        <path
           id="path1304"
           d="m -162.74189,169.34126 h 13.08736"
           style="fill:none;stroke:#000000;stroke-width:2;stroke-linecap:round;stroke-linejoin:miter;stroke-miterlimit:4;stroke-dasharray:none;stroke-opacity:1" />
        <path
           id="path1306"
           d="m -189.20009,172.51628 h 58.34479"
           style="fill:none;stroke:#000000;stroke-width:2;stroke-linecap:round;stroke-linejoin:miter;stroke-miterlimit:4;stroke-dasharray:none;stroke-opacity:1" />
        <path
           style="fill:none;stroke:#000000;stroke-width:2;stroke-linecap:round;stroke-linejoin:miter;stroke-miterlimit:4;stroke-dasharray:none;stroke-opacity:1"
           d="m -189.20009,175.6913 h 35.59063"
           id="path1308" />
        <path
           style="fill:none;stroke:#000000;stroke-width:2;stroke-linecap:round;stroke-linejoin:miter;stroke-miterlimit:4;stroke-dasharray:none;stroke-opacity:1"
           d="m -189.20009,178.86632 h 45.36651"
           id="path1310" />
        <path
           id="path1312"
           d="m -189.20009,182.04134 h 35.59063"
           style="fill:none;stroke:#000000;stroke-width:2;stroke-linecap:round;stroke-linejoin:miter;stroke-miterlimit:4;stroke-dasharray:none;stroke-opacity:1" />
        <path
           style="fill:none;stroke:#000000;stroke-width:2;stroke-linecap:round;stroke-linejoin:miter;stroke-miterlimit:4;stroke-dasharray:none;stroke-opacity:1"
           d="m -189.20009,185.21636 h 41.94063"
           id="path1314" />
        <path
           id="path1316"
           d="m -150.0772,175.70229 h 22.61234"
           style="fill:none;stroke:#000000;stroke-width:2;stroke-linecap:round;stroke-linejoin:miter;stroke-miterlimit:4;stroke-dasharray:none;stroke-opacity:1" />
        <path
           id="path1318"
           d="m -79.688333,150.31238 0.0306,55.69896"
           style="fill:none;stroke:#000000;stroke-width:2;stroke-linecap:round;stroke-linejoin:miter;stroke-miterlimit:4;stroke-dasharray:none;stroke-opacity:1" />
        <path
           id="path1320"
           d="m -79.66927,160.32401 c 0.454501,0.025 -0.454501,-0.025 0,0 z"
           style="fill:none;stroke:#000000;stroke-width:4;stroke-linecap:round;stroke-linejoin:miter;stroke-miterlimit:4;stroke-dasharray:none;stroke-opacity:1" />
        <path
           id="path1322"
           d="m -91.757827,141.98516 h 13.08736"
           style="fill:none;stroke:#000000;stroke-width:2;stroke-linecap:round;stroke-linejoin:miter;stroke-miterlimit:4;stroke-dasharray:none;stroke-opacity:1" />
      </g>
    </g>
  </g>
</svg>
