<?xml version="1.0" encoding="UTF-8" standalone="no"?>
<svg
   xmlns:dc="http://purl.org/dc/elements/1.1/"
   xmlns:cc="http://creativecommons.org/ns#"
   xmlns:rdf="http://www.w3.org/1999/02/22-rdf-syntax-ns#"
   xmlns:svg="http://www.w3.org/2000/svg"
   xmlns="http://www.w3.org/2000/svg"
   xmlns:sodipodi="http://sodipodi.sourceforge.net/DTD/sodipodi-0.dtd"
   xmlns:inkscape="http://www.inkscape.org/namespaces/inkscape"
   id="svg8"
   version="1.1"
   viewBox="0 0 423.33335 238.12501"
   height="238.125mm"
   width="423.33334mm"
   sodipodi:docname="srv-icon.svg"
   inkscape:version="1.0 (4035a4fb49, 2020-05-01)">
  <sodipodi:namedview
     inkscape:document-rotation="0"
     pagecolor="#ffffff"
     bordercolor="#666666"
     borderopacity="1"
     objecttolerance="10"
     gridtolerance="10"
     guidetolerance="10"
     inkscape:pageopacity="0"
     inkscape:pageshadow="2"
     inkscape:window-width="1170"
     inkscape:window-height="763"
     id="namedview32"
     showgrid="false"
     inkscape:zoom="0.21858669"
     inkscape:cx="982.132"
     inkscape:cy="13.260731"
     inkscape:window-x="750"
     inkscape:window-y="11"
     inkscape:window-maximized="0"
     inkscape:current-layer="svg8" />
  <defs
     id="defs2" />
  <metadata
     id="metadata5">
    <rdf:RDF>
      <cc:Work
         rdf:about="">
        <dc:format>image/svg+xml</dc:format>
        <dc:type
           rdf:resource="http://purl.org/dc/dcmitype/StillImage" />
        <dc:title />
      </cc:Work>
    </rdf:RDF>
  </metadata>
  <g
     inkscape:label="Layer 1"
     id="layer1-2"
     transform="matrix(1.1955731,0,0,1.1955731,95.0551,-86.795433)">
    <g
       id="g1185"
       transform="translate(19.773343,-34.331369)">
      <rect
         ry="7.2697306"
         y="128.06947"
         x="41.553719"
         height="51.707138"
         width="131.83809"
         id="rect896"
         style="fill:none;fill-opacity:1;stroke:#000000;stroke-width:5;stroke-linejoin:round;stroke-miterlimit:4;stroke-dasharray:none;stroke-opacity:1" />
      <rect
         style="fill:none;fill-opacity:1;stroke:#000000;stroke-width:5;stroke-linejoin:round;stroke-miterlimit:4;stroke-dasharray:none;stroke-opacity:1"
         id="rect901"
         width="131.83809"
         height="51.707138"
         x="41.553719"
         y="128.06947"
         ry="7.2697306" />
      <circle
         r="10.000007"
         cy="154.28255"
         cx="151.89227"
         id="path905"
         style="fill:none;fill-opacity:1;stroke:#000000;stroke-width:5;stroke-linejoin:round;stroke-miterlimit:4;stroke-dasharray:none;stroke-opacity:1" />
      <path
         id="path907"
         d="m 53.960171,146.66815 -0.213815,14.75327"
         style="fill:none;stroke:#000000;stroke-width:5;stroke-linecap:round;stroke-linejoin:miter;stroke-miterlimit:4;stroke-dasharray:none;stroke-opacity:1" />
      <path
         style="fill:none;stroke:#000000;stroke-width:5;stroke-linecap:round;stroke-linejoin:miter;stroke-miterlimit:4;stroke-dasharray:none;stroke-opacity:1"
         d="m 53.960171,146.66815 -0.213815,14.75327"
         id="path909" />
      <path
         id="path911"
         d="m 60.839339,146.66815 -0.213815,14.75327"
         style="fill:none;stroke:#000000;stroke-width:5;stroke-linecap:round;stroke-linejoin:miter;stroke-miterlimit:4;stroke-dasharray:none;stroke-opacity:1" />
      <path
         id="path913"
         d="m 67.718504,146.66815 -0.213815,14.75327"
         style="fill:none;stroke:#000000;stroke-width:5;stroke-linecap:round;stroke-linejoin:miter;stroke-miterlimit:4;stroke-dasharray:none;stroke-opacity:1" />
      <path
         style="fill:none;stroke:#000000;stroke-width:5;stroke-linecap:round;stroke-linejoin:miter;stroke-miterlimit:4;stroke-dasharray:none;stroke-opacity:1"
         d="m 74.597672,146.66815 -0.213815,14.75327"
         id="path915" />
      <path
         id="path917"
         d="m 80.947673,146.66815 -0.213815,14.75327"
         style="fill:none;stroke:#000000;stroke-width:5;stroke-linecap:round;stroke-linejoin:miter;stroke-miterlimit:4;stroke-dasharray:none;stroke-opacity:1" />
      <path
         style="fill:none;stroke:#000000;stroke-width:5;stroke-linecap:round;stroke-linejoin:miter;stroke-miterlimit:4;stroke-dasharray:none;stroke-opacity:1"
         d="m 87.826841,146.66815 -0.213815,14.75327"
         id="path919" />
      <path
         style="fill:none;stroke:#000000;stroke-width:5;stroke-linecap:round;stroke-linejoin:miter;stroke-miterlimit:4;stroke-dasharray:none;stroke-opacity:1"
         d="m 94.706006,146.66815 -0.213815,14.75327"
         id="path921" />
      <path
         id="path923"
         d="m 101.58518,146.66815 -0.21382,14.75327"
         style="fill:none;stroke:#000000;stroke-width:5;stroke-linecap:round;stroke-linejoin:miter;stroke-miterlimit:4;stroke-dasharray:none;stroke-opacity:1" />
    </g>
    <g
       id="g1211"
       transform="translate(19.773343,18.585296)">
      <rect
         style="fill:none;fill-opacity:1;stroke:#000000;stroke-width:5;stroke-linejoin:round;stroke-miterlimit:4;stroke-dasharray:none;stroke-opacity:1"
         id="rect1187"
         width="131.83809"
         height="51.707138"
         x="41.553719"
         y="128.06947"
         ry="7.2697306" />
      <rect
         ry="7.2697306"
         y="128.06947"
         x="41.553719"
         height="51.707138"
         width="131.83809"
         id="rect1189"
         style="fill:none;fill-opacity:1;stroke:#000000;stroke-width:5;stroke-linejoin:round;stroke-miterlimit:4;stroke-dasharray:none;stroke-opacity:1" />
      <circle
         style="fill:none;fill-opacity:1;stroke:#000000;stroke-width:5;stroke-linejoin:round;stroke-miterlimit:4;stroke-dasharray:none;stroke-opacity:1"
         id="circle1191"
         cx="151.89227"
         cy="154.28255"
         r="10.000007" />
      <path
         style="fill:none;stroke:#000000;stroke-width:5;stroke-linecap:round;stroke-linejoin:miter;stroke-miterlimit:4;stroke-dasharray:none;stroke-opacity:1"
         d="m 53.960171,146.66815 -0.213815,14.75327"
         id="path1193" />
      <path
         id="path1195"
         d="m 53.960171,146.66815 -0.213815,14.75327"
         style="fill:none;stroke:#000000;stroke-width:5;stroke-linecap:round;stroke-linejoin:miter;stroke-miterlimit:4;stroke-dasharray:none;stroke-opacity:1" />
      <path
         style="fill:none;stroke:#000000;stroke-width:5;stroke-linecap:round;stroke-linejoin:miter;stroke-miterlimit:4;stroke-dasharray:none;stroke-opacity:1"
         d="m 60.839339,146.66815 -0.213815,14.75327"
         id="path1197" />
      <path
         style="fill:none;stroke:#000000;stroke-width:5;stroke-linecap:round;stroke-linejoin:miter;stroke-miterlimit:4;stroke-dasharray:none;stroke-opacity:1"
         d="m 67.718504,146.66815 -0.213815,14.75327"
         id="path1199" />
      <path
         id="path1201"
         d="m 74.597672,146.66815 -0.213815,14.75327"
         style="fill:none;stroke:#000000;stroke-width:5;stroke-linecap:round;stroke-linejoin:miter;stroke-miterlimit:4;stroke-dasharray:none;stroke-opacity:1" />
      <path
         style="fill:none;stroke:#000000;stroke-width:5;stroke-linecap:round;stroke-linejoin:miter;stroke-miterlimit:4;stroke-dasharray:none;stroke-opacity:1"
         d="m 80.947673,146.66815 -0.213815,14.75327"
         id="path1203" />
      <path
         id="path1205"
         d="m 87.826841,146.66815 -0.213815,14.75327"
         style="fill:none;stroke:#000000;stroke-width:5;stroke-linecap:round;stroke-linejoin:miter;stroke-miterlimit:4;stroke-dasharray:none;stroke-opacity:1" />
      <path
         id="path1207"
         d="m 94.706006,146.66815 -0.213815,14.75327"
         style="fill:none;stroke:#000000;stroke-width:5;stroke-linecap:round;stroke-linejoin:miter;stroke-miterlimit:4;stroke-dasharray:none;stroke-opacity:1" />
      <path
         style="fill:none;stroke:#000000;stroke-width:5;stroke-linecap:round;stroke-linejoin:miter;stroke-miterlimit:4;stroke-dasharray:none;stroke-opacity:1"
         d="m 101.58518,146.66815 -0.21382,14.75327"
         id="path1209" />
    </g>
    <g
       transform="translate(19.773343,71.501968)"
       id="g1237">
      <rect
         ry="7.2697306"
         y="128.06947"
         x="41.553719"
         height="51.707138"
         width="131.83809"
         id="rect1213"
         style="fill:none;fill-opacity:1;stroke:#000000;stroke-width:5;stroke-linejoin:round;stroke-miterlimit:4;stroke-dasharray:none;stroke-opacity:1" />
      <rect
         style="fill:none;fill-opacity:1;stroke:#000000;stroke-width:5;stroke-linejoin:round;stroke-miterlimit:4;stroke-dasharray:none;stroke-opacity:1"
         id="rect1215"
         width="131.83809"
         height="51.707138"
         x="41.553719"
         y="128.06947"
         ry="7.2697306" />
      <circle
         r="10.000007"
         cy="154.28255"
         cx="151.89227"
         id="circle1217"
         style="fill:none;fill-opacity:1;stroke:#000000;stroke-width:5;stroke-linejoin:round;stroke-miterlimit:4;stroke-dasharray:none;stroke-opacity:1" />
      <path
         id="path1219"
         d="m 53.960171,146.66815 -0.213815,14.75327"
         style="fill:none;stroke:#000000;stroke-width:5;stroke-linecap:round;stroke-linejoin:miter;stroke-miterlimit:4;stroke-dasharray:none;stroke-opacity:1" />
      <path
         style="fill:none;stroke:#000000;stroke-width:5;stroke-linecap:round;stroke-linejoin:miter;stroke-miterlimit:4;stroke-dasharray:none;stroke-opacity:1"
         d="m 53.960171,146.66815 -0.213815,14.75327"
         id="path1221" />
      <path
         id="path1223"
         d="m 60.839339,146.66815 -0.213815,14.75327"
         style="fill:none;stroke:#000000;stroke-width:5;stroke-linecap:round;stroke-linejoin:miter;stroke-miterlimit:4;stroke-dasharray:none;stroke-opacity:1" />
      <path
         id="path1225"
         d="m 67.718504,146.66815 -0.213815,14.75327"
         style="fill:none;stroke:#000000;stroke-width:5;stroke-linecap:round;stroke-linejoin:miter;stroke-miterlimit:4;stroke-dasharray:none;stroke-opacity:1" />
      <path
         style="fill:none;stroke:#000000;stroke-width:5;stroke-linecap:round;stroke-linejoin:miter;stroke-miterlimit:4;stroke-dasharray:none;stroke-opacity:1"
         d="m 74.597672,146.66815 -0.213815,14.75327"
         id="path1227" />
      <path
         id="path1229"
         d="m 80.947673,146.66815 -0.213815,14.75327"
         style="fill:none;stroke:#000000;stroke-width:5;stroke-linecap:round;stroke-linejoin:miter;stroke-miterlimit:4;stroke-dasharray:none;stroke-opacity:1" />
      <path
         style="fill:none;stroke:#000000;stroke-width:5;stroke-linecap:round;stroke-linejoin:miter;stroke-miterlimit:4;stroke-dasharray:none;stroke-opacity:1"
         d="m 87.826841,146.66815 -0.213815,14.75327"
         id="path1231" />
      <path
         style="fill:none;stroke:#000000;stroke-width:5;stroke-linecap:round;stroke-linejoin:miter;stroke-miterlimit:4;stroke-dasharray:none;stroke-opacity:1"
         d="m 94.706006,146.66815 -0.213815,14.75327"
         id="path1233" />
      <path
         id="path1235"
         d="m 101.58518,146.66815 -0.21382,14.75327"
         style="fill:none;stroke:#000000;stroke-width:5;stroke-linecap:round;stroke-linejoin:miter;stroke-miterlimit:4;stroke-dasharray:none;stroke-opacity:1" />
    </g>
    <g
       transform="translate(-106.5978,149.71617)"
       id="g968">
      <g
         id="g1541">
        <rect
           style="fill:none;fill-opacity:1;stroke:#000000;stroke-width:4.99999;stroke-linecap:round;stroke-linejoin:round;stroke-miterlimit:4;stroke-dasharray:none;stroke-opacity:1"
           id="rect1032"
           width="50.460487"
           height="72.055862"
           x="104.23514"
           y="29.506552"
           ry="7.2697182" />
        <circle
           r="6.000001"
           cy="55.441589"
           cx="129.49738"
           id="circle1099"
           style="fill:none;fill-opacity:1;stroke:#000000;stroke-width:3;stroke-linejoin:round;stroke-miterlimit:4;stroke-dasharray:none;stroke-opacity:1" />
        <path
           id="path945"
           style="color:#000000;font-style:normal;font-variant:normal;font-weight:normal;font-stretch:normal;font-size:medium;line-height:normal;font-family:sans-serif;font-variant-ligatures:normal;font-variant-position:normal;font-variant-caps:normal;font-variant-numeric:normal;font-variant-alternates:normal;font-variant-east-asian:normal;font-feature-settings:normal;font-variation-settings:normal;text-indent:0;text-align:start;text-decoration:none;text-decoration-line:none;text-decoration-style:solid;text-decoration-color:#000000;letter-spacing:normal;word-spacing:normal;text-transform:none;writing-mode:lr-tb;direction:ltr;text-orientation:mixed;dominant-baseline:auto;baseline-shift:baseline;text-anchor:start;white-space:normal;shape-padding:0;shape-margin:0;inline-size:0;clip-rule:nonzero;display:inline;overflow:visible;visibility:visible;opacity:1;isolation:auto;mix-blend-mode:normal;color-interpolation:sRGB;color-interpolation-filters:linearRGB;solid-color:#000000;solid-opacity:1;vector-effect:none;fill:#000000;fill-opacity:1;fill-rule:nonzero;stroke:none;stroke-width:21.9621;stroke-linecap:butt;stroke-linejoin:round;stroke-miterlimit:4;stroke-dasharray:none;stroke-dashoffset:0;stroke-opacity:1;color-rendering:auto;image-rendering:auto;shape-rendering:auto;text-rendering:auto;enable-background:accumulate;stop-color:#000000;stop-opacity:1"
           d="m 489.90625,128.29688 c -44.74851,-2e-5 -81.25977,36.51125 -81.25977,81.25976 0,44.74851 36.51126,81.25978 81.25977,81.25977 4.97889,-1e-5 9.8558,-0.45527 14.5918,-1.32032 -11.12517,-8.85717 -23.68374,-18.57381 -28.4961,-22.28711 -26.11269,-6.21759 -45.39453,-29.56776 -45.39453,-57.65234 0,-32.8793 26.41955,-59.29884 59.29883,-59.29883 32.87932,1e-5 59.29883,26.41954 59.29883,59.29883 0,26.7372 -17.47153,49.19576 -41.67969,56.6543 8.06266,4.41781 16.52933,9.02874 24.06445,13.03906 23.67273,-14.23078 39.57618,-40.1648 39.57618,-69.69336 0,-44.74849 -36.51126,-81.25975 -81.25977,-81.25976 z M 531.58984,279.25 504.49805,289.49609 Z m -24.06445,-13.03906 -31.52344,0.99804 z"
           transform="scale(0.26458333)"
           sodipodi:nodetypes="sssccsssccsscccccc" />
        <g
           id="g1528">
          <g
             transform="rotate(-16.165192,172.54279,93.701069)"
             id="g1110"
             style="stroke:none;stroke-opacity:1">
            <path
               id="path1103"
               style="fill:#000000;fill-opacity:1;stroke:none;stroke-width:1.51181;stroke-linecap:round;stroke-linejoin:miter;stroke-miterlimit:4;stroke-dasharray:none;stroke-opacity:1"
               d="m 460.92773,249.60742 c 0,0 61.77531,47.5311 85.69336,66.19141 4.13872,3.22895 12.22907,-0.0437 15.11329,-4.42969 2.67497,-4.06774 2.57997,-12.33236 -1.78126,-14.49609 -30.88765,-15.32444 -99.02539,-47.26563 -99.02539,-47.26563 z m 90.54297,48.15625 c 2.91763,0.0639 5.60778,2.00888 6.45899,4.94531 1.04757,3.6141 -1.0656,7.44068 -4.67969,8.48829 -3.61409,1.0476 -7.43872,-1.05779 -8.48633,-4.67188 -1.04761,-3.61409 1.05584,-7.44653 4.66992,-8.49414 0.67765,-0.19643 1.36381,-0.28232 2.03711,-0.26758 z m -0.36523,3.78321 c -0.20506,0.0173 -0.41261,0.0554 -0.61914,0.11523 -1.65224,0.47893 -2.57073,2.15831 -2.0918,3.81055 0.47893,1.65223 2.1505,2.57463 3.80274,2.0957 1.65223,-0.47893 2.58241,-2.15439 2.10351,-3.80664 -0.4191,-1.4457 -1.75987,-2.33581 -3.19531,-2.21484 z"
               transform="matrix(0.2541225,0.07366203,-0.07366203,0.2541225,32.90892,-44.332576)" />
          </g>
          <g
             id="g949"
             transform="rotate(-16.165192)"
             style="opacity:1">
            <path
               style="color:#000000;font-style:normal;font-variant:normal;font-weight:normal;font-stretch:normal;font-size:medium;line-height:normal;font-family:sans-serif;font-variant-ligatures:normal;font-variant-position:normal;font-variant-caps:normal;font-variant-numeric:normal;font-variant-alternates:normal;font-variant-east-asian:normal;font-feature-settings:normal;font-variation-settings:normal;text-indent:0;text-align:start;text-decoration:none;text-decoration-line:none;text-decoration-style:solid;text-decoration-color:#000000;letter-spacing:normal;word-spacing:normal;text-transform:none;writing-mode:lr-tb;direction:ltr;text-orientation:mixed;dominant-baseline:auto;baseline-shift:baseline;text-anchor:start;white-space:normal;shape-padding:0;shape-margin:0;inline-size:0;clip-rule:nonzero;display:inline;overflow:visible;visibility:visible;isolation:auto;mix-blend-mode:normal;color-interpolation:sRGB;color-interpolation-filters:linearRGB;solid-color:#000000;solid-opacity:1;vector-effect:none;fill:#000000;fill-opacity:1;fill-rule:nonzero;stroke:none;stroke-width:0.9237;stroke-linecap:butt;stroke-linejoin:round;stroke-miterlimit:4;stroke-dasharray:none;stroke-dashoffset:0;stroke-opacity:1;color-rendering:auto;image-rendering:auto;shape-rendering:auto;text-rendering:auto;enable-background:accumulate;stop-color:#000000;stop-opacity:1"
               d="m 118.88973,118.02497 c 0,0.67002 -0.54317,1.21318 -1.21319,1.21318 -0.67003,0 -1.21319,-0.54316 -1.21319,-1.21318 0,-0.67002 0.54316,-1.21319 1.21319,-1.21319 0.67002,0 1.21319,0.54317 1.21319,1.21319"
               id="path951" />
          </g>
        </g>
        <path
           style="fill:none;stroke:#000000;stroke-width:2;stroke-linecap:round;stroke-linejoin:miter;stroke-miterlimit:4;stroke-dasharray:none;stroke-opacity:1"
           d="m 112.01269,85.20553 11.75986,0.0012"
           id="path1255"
           sodipodi:nodetypes="cc" />
        <path
           sodipodi:nodetypes="cc"
           id="path1257"
           d="m 112.01269,88.380529 11.75986,0.0012"
           style="fill:none;stroke:#000000;stroke-width:2;stroke-linecap:round;stroke-linejoin:miter;stroke-miterlimit:4;stroke-dasharray:none;stroke-opacity:1" />
        <path
           style="fill:none;stroke:#000000;stroke-width:2;stroke-linecap:round;stroke-linejoin:miter;stroke-miterlimit:4;stroke-dasharray:none;stroke-opacity:1"
           d="m 112.01269,91.555531 11.75986,0.0012"
           id="path1259"
           sodipodi:nodetypes="cc" />
      </g>
    </g>
  </g>
</svg>
